waveform.vcd
$version Generated by VerilatedVcd $end
$date Thu Jan 23 13:43:57 2025
 $end
$timescale   1ps $end

 $scope module TOP $end
  $var wire  1 { clock $end
  $var wire  1 | reset $end
  $scope module System_Bus $end
   $var wire 14 E M1_address [13:0] $end
   $var wire  1 { M1_clock $end
   $var wire  1 D M1_control $end
   $var wire  1 I M1_done $end
   $var wire  1 J M1_grant $end
   $var wire  8 H M1_rdata [7:0] $end
   $var wire  1 C M1_request $end
   $var wire  1 | M1_reset $end
   $var wire  1 F M1_valid $end
   $var wire  8 G M1_wdata [7:0] $end
   $var wire 14 M M2_address [13:0] $end
   $var wire  1 { M2_clock $end
   $var wire  1 L M2_control $end
   $var wire  1 I M2_done $end
   $var wire  1 P M2_grant $end
   $var wire  8 H M2_rdata [7:0] $end
   $var wire  1 K M2_request $end
   $var wire  1 | M2_reset $end
   $var wire  1 N M2_valid $end
   $var wire  8 O M2_wdata [7:0] $end
   $var wire  1 { S1_clock $end
   $var wire 14 Q S1_io_addr [13:0] $end
   $var wire  1 V S1_io_done $end
   $var wire  8 U S1_io_rdData [7:0] $end
   $var wire  1 T S1_io_valid $end
   $var wire  8 R S1_io_wrData [7:0] $end
   $var wire  1 S S1_io_wrEnable $end
   $var wire  1 | S1_reset $end
   $var wire  1 { S2_clock $end
   $var wire 14 W S2_io_addr [13:0] $end
   $var wire  1 Y S2_io_done $end
   $var wire  8 X S2_io_rdData [7:0] $end
   $var wire  1 T S2_io_valid $end
   $var wire  8 R S2_io_wrData [7:0] $end
   $var wire  1 S S2_io_wrEnable $end
   $var wire  1 | S2_reset $end
   $var wire  1 { S3_clock $end
   $var wire 14 Z S3_io_addr [13:0] $end
   $var wire  1 \ S3_io_done $end
   $var wire  8 [ S3_io_rdData [7:0] $end
   $var wire  1 T S3_io_valid $end
   $var wire  8 R S3_io_wrData [7:0] $end
   $var wire  1 S S3_io_wrEnable $end
   $var wire  1 | S3_reset $end
   $var wire 14 ^ addr [13:0] $end
   $var wire  1 a arb_grant_wire $end
   $var wire  1 ` arb_req_wire $end
   $var wire  1 { arbiter_clock $end
   $var wire  1 J arbiter_io_grant0 $end
   $var wire  1 P arbiter_io_grant1 $end
   $var wire  1 ] arbiter_io_masterSel $end
   $var wire  1 C arbiter_io_req0 $end
   $var wire  1 K arbiter_io_req1 $end
   $var wire  1 | arbiter_reset $end
   $var wire  1 { clock $end
   $var wire  1 | reset $end
   $var wire  1 _ split_wire $end
   $scope module M1 $end
    $var wire 14 # addr(0) [13:0] $end
    $var wire 14 $ addr(1) [13:0] $end
    $var wire 14 % addr(2) [13:0] $end
    $var wire 14 & addr(3) [13:0] $end
    $var wire 14 ' addr(4) [13:0] $end
    $var wire 14 ( addr(5) [13:0] $end
    $var wire 14 ) addr(6) [13:0] $end
    $var wire 14 * addr(7) [13:0] $end
    $var wire 14 E address [13:0] $end
    $var wire 14 E address_reg [13:0] $end
    $var wire  1 { clock $end
    $var wire  1 D control $end
    $var wire  4 b countreg [3:0] $end
    $var wire  1 I done $end
    $var wire  1 J grant $end
    $var wire  3 c order_index [2:0] $end
    $var wire  8 H rdata [7:0] $end
    $var wire  1 C request $end
    $var wire  1 C request_reg $end
    $var wire  1 | reset $end
    $var wire  1 + rwreg(0) $end
    $var wire  1 , rwreg(1) $end
    $var wire  1 - rwreg(2) $end
    $var wire  1 . rwreg(3) $end
    $var wire  1 / rwreg(4) $end
    $var wire  1 0 rwreg(5) $end
    $var wire  1 1 rwreg(6) $end
    $var wire  1 2 rwreg(7) $end
    $var wire  2 d stateReg [1:0] $end
    $var wire  1 F valid $end
    $var wire  1 F valid_reg $end
    $var wire  8 G wdata [7:0] $end
    $var wire  8 G wdata_reg [7:0] $end
   $upscope $end
   $scope module M2 $end
    $var wire 14 3 addr(0) [13:0] $end
    $var wire 14 4 addr(1) [13:0] $end
    $var wire 14 5 addr(2) [13:0] $end
    $var wire 14 6 addr(3) [13:0] $end
    $var wire 14 7 addr(4) [13:0] $end
    $var wire 14 8 addr(5) [13:0] $end
    $var wire 14 9 addr(6) [13:0] $end
    $var wire 14 : addr(7) [13:0] $end
    $var wire 14 M address [13:0] $end
    $var wire 14 M address_reg [13:0] $end
    $var wire  1 { clock $end
    $var wire  1 L control $end
    $var wire  4 e countreg [3:0] $end
    $var wire  1 I done $end
    $var wire  1 P grant $end
    $var wire  3 f order_index [2:0] $end
    $var wire  8 H rdata [7:0] $end
    $var wire  1 K request $end
    $var wire  1 K request_reg $end
    $var wire  1 | reset $end
    $var wire  1 ; rwreg(0) $end
    $var wire  1 < rwreg(1) $end
    $var wire  1 = rwreg(2) $end
    $var wire  1 > rwreg(3) $end
    $var wire  1 ? rwreg(4) $end
    $var wire  1 @ rwreg(5) $end
    $var wire  1 A rwreg(6) $end
    $var wire  1 B rwreg(7) $end
    $var wire  2 g stateReg [1:0] $end
    $var wire  1 N valid $end
    $var wire  1 N valid_reg $end
    $var wire  8 O wdata [7:0] $end
    $var wire  8 O wdata_reg [7:0] $end
   $upscope $end
   $scope module S1 $end
    $var wire  2 } IDLE [1:0] $end
    $var wire  2 !! RESPONSE [1:0] $end
    $var wire  2 ~ SERVICING [1:0] $end
    $var wire 14 h addr_reg [13:0] $end
    $var wire  1 { clock $end
    $var wire  1 j control_reg $end
    $var wire  4 k countreg [3:0] $end
    $var wire  1 V done_reg $end
    $var wire 14 Q io_addr [13:0] $end
    $var wire  1 V io_done $end
    $var wire  8 U io_rdData [7:0] $end
    $var wire  1 T io_valid $end
    $var wire  8 R io_wrData [7:0] $end
    $var wire  1 S io_wrEnable $end
    $var wire  8 U rdata_reg [7:0] $end
    $var wire  1 | reset $end
    $var wire  2 l stateReg [1:0] $end
    $var wire  8 i wdata_reg [7:0] $end
   $upscope $end
   $scope module S2 $end
    $var wire  2 } IDLE [1:0] $end
    $var wire  2 !! RESPONSE [1:0] $end
    $var wire  2 ~ SERVICING [1:0] $end
    $var wire 14 m addr_reg [13:0] $end
    $var wire  1 { clock $end
    $var wire  1 o control_reg $end
    $var wire  4 p countreg [3:0] $end
    $var wire  1 Y done_reg $end
    $var wire 14 W io_addr [13:0] $end
    $var wire  1 Y io_done $end
    $var wire  8 X io_rdData [7:0] $end
    $var wire  1 T io_valid $end
    $var wire  8 R io_wrData [7:0] $end
    $var wire  1 S io_wrEnable $end
    $var wire  8 X rdata_reg [7:0] $end
    $var wire  1 | reset $end
    $var wire  2 q stateReg [1:0] $end
    $var wire  8 n wdata_reg [7:0] $end
   $upscope $end
   $scope module S3 $end
    $var wire  3 &! ARB_REQ [2:0] $end
    $var wire  3 "! IDLE [2:0] $end
    $var wire  3 $! RESPONSE [2:0] $end
    $var wire  3 #! SERVICING [2:0] $end
    $var wire  3 %! SPLIT [2:0] $end
    $var wire 14 r addr_reg [13:0] $end
    $var wire  1 a arb_grant $end
    $var wire  1 ` arb_req $end
    $var wire  1 ` arb_req_reg $end
    $var wire  1 { clock $end
    $var wire  1 t control_reg $end
    $var wire  4 u countreg [3:0] $end
    $var wire  1 \ done_reg $end
    $var wire 14 Z io_addr [13:0] $end
    $var wire  1 \ io_done $end
    $var wire  8 [ io_rdData [7:0] $end
    $var wire  1 T io_valid $end
    $var wire  8 R io_wrData [7:0] $end
    $var wire  1 S io_wrEnable $end
    $var wire  8 [ rdata_reg [7:0] $end
    $var wire  1 | reset $end
    $var wire  1 _ split $end
    $var wire  1 w split_reg $end
    $var wire  1 _ split_req_reg $end
    $var wire  3 v stateReg [2:0] $end
    $var wire  8 s wdata_reg [7:0] $end
   $upscope $end
   $scope module arbiter $end
    $var wire  3 #! GRANT0 [2:0] $end
    $var wire  3 $! GRANT1 [2:0] $end
    $var wire  3 "! IDLE [2:0] $end
    $var wire  1 { clock $end
    $var wire  1 J grant0Reg $end
    $var wire  1 P grant1Reg $end
    $var wire  1 J io_grant0 $end
    $var wire  1 P io_grant1 $end
    $var wire  1 ] io_masterSel $end
    $var wire  1 C io_req0 $end
    $var wire  1 K io_req1 $end
    $var wire  1 ] masterSelReg $end
    $var wire  1 | reset $end
    $var wire  1 _ split $end
    $var wire  1 a split_grant $end
    $var wire  1 a split_grant_reg $end
    $var wire  1 y split_remember $end
    $var wire  1 ` split_req $end
    $var wire  3 z stateReg [2:0] $end
    $var wire  4 x timer [3:0] $end
   $upscope $end
  $upscope $end
 $upscope $end
$enddefinitions $end


#0
b10000000000001 #
b10000000000001 $
b00000000000001 %
b01000000001001 &
b00000000000010 '
b01000000001010 (
b00000000000011 )
b01000000001011 *
0+
1,
0-
1.
0/
10
01
12
b01000000000000 3
b00000000001000 4
b01000000000001 5
b00000000001001 6
b01000000000010 7
b00000000001010 8
b01000000000011 9
b00000000001011 :
0;
1<
0=
1>
0?
1@
0A
1B
0C
0D
b00000000000000 E
0F
b00000000 G
b00000000 H
0I
0J
0K
0L
b00000000000000 M
0N
b00000000 O
0P
b00000000000000 Q
b00000000 R
0S
0T
b00000000 U
0V
b00000000000000 W
b00000000 X
0Y
b00000000000000 Z
b00000000 [
0\
0]
b00000000000000 ^
0_
0`
0a
b0000 b
b000 c
b00 d
b0000 e
b000 f
b00 g
b00000000000000 h
b00000000 i
0j
b0000 k
b00 l
b00000000000000 m
b00000000 n
0o
b0000 p
b00 q
b00000000000000 r
b00000000 s
0t
b0000 u
b000 v
0w
b0000 x
0y
b000 z
1{
1|
b00 }
b01 ~
b10 !!
b000 "!
b001 #!
b010 $!
b011 %!
b100 &!
#1
0{
#2
b10100101 H
b10100101 U
b00011010 X
b10011110 [
1{
0|
#3
0{
#4
b0001 b
b0001 e
1{
#5
0{
#6
b0010 b
b0010 e
1{
#7
0{
#8
1C
1K
b0011 b
b01 d
b0011 e
b01 g
1{
#9
0{
#10
1J
b0100 b
b0100 e
b0001 x
b001 z
1{
#11
0{
#12
b10000000000001 E
1F
b00000001 G
b10011110 H
b10000000000001 Q
b00000001 R
1T
b10000000000001 W
b10000000000001 Z
b10000000000001 ^
b0101 b
b10 d
b0101 e
b0010 x
1{
#13
0{
#14
b0110 b
b0110 e
b10000000000001 r
b00000001 s
b0001 u
b001 v
b0011 x
1{
#15
0{
#16
b00101001 H
b00101001 [
b0111 b
b0111 e
b0010 u
b0100 x
1{
#17
0{
#18
b1000 b
b1000 e
b0011 u
b0101 x
1{
#19
0{
#20
1I
1\
b1001 b
b1001 e
b010 v
b0110 x
1{
#21
0{
#22
0C
1D
0F
b00101001 G
0I
b00101001 R
1S
0T
0\
b1010 b
b001 c
b00 d
b1010 e
b000 v
b0111 x
1{
#23
0{
#24
b10100101 H
0J
1P
b00000000000000 Q
b00000000 R
0S
b00000000000000 W
b00000000000000 Z
1]
b00000000000000 ^
b1011 b
b1011 e
b0000 x
b010 z
1{
#25
0{
#26
b00011010 H
b01000000000000 M
1N
b00000001 O
b01000000000000 Q
b00000001 R
1T
b01000000000000 W
b01000000000000 Z
b01000000000000 ^
b1100 b
b1100 e
b10 g
b0001 x
1{
#27
0{
#28
b1101 b
b1101 e
b01000000000000 m
b00000001 n
b0001 p
b01 q
b0010 x
1{
#29
0{
#30
1C
b1110 b
b01 d
b1110 e
b0010 p
b0011 x
1{
#31
0{
#32
b1111 b
b1111 e
b0011 p
b0100 x
1{
#33
0{
#34
1I
1Y
b0000 b
b0000 e
b10 q
b0101 x
1{
#35
0{
#36
0I
0K
1L
0N
b00011010 O
b00011010 R
1S
0T
0Y
b0001 b
b0001 e
b001 f
b00 g
b00 q
b0110 x
1{
#37
0{
#38
b00101001 H
1J
0P
b10000000000001 Q
b00101001 R
b10000000000001 W
b10000000000001 Z
0]
b10000000000001 ^
b0010 b
b0010 e
b0000 x
b001 z
1{
#39
0{
#40
1F
b00101010 G
1K
b00101010 R
1T
b0011 b
b10 d
b0011 e
b01 g
b0001 x
1{
#41
0{
#42
b0100 b
b0100 e
b00101010 s
1t
b0001 u
b001 v
b0010 x
1{
#43
0{
#44
b0101 b
b0101 e
b0010 u
b0011 x
1{
#45
0{
#46
b0110 b
b0110 e
b0011 u
b0100 x
1{
#47
0{
#48
1I
1\
b0111 b
b0111 e
b010 v
b0101 x
1{
#49
0{
#50
0C
0D
0F
b00101001 G
0I
b00101001 R
0S
0T
0\
b1000 b
b010 c
b00 d
b1000 e
b000 v
b0110 x
1{
#51
0{
#52
b00011010 H
0J
1P
b01000000000000 Q
b00011010 R
1S
b01000000000000 W
b01000000000000 Z
1]
b01000000000000 ^
b1001 b
b1001 e
b0000 x
b010 z
1{
#53
0{
#54
b10100101 H
b00000000001000 M
1N
b00011011 O
b00000000001000 Q
b00011011 R
1T
b00000000001000 W
b00000000001000 Z
b00000000001000 ^
b1010 b
b1010 e
b10 g
b0001 x
1{
#55
0{
#56
b1011 b
b1011 e
b00000000001000 h
b00011011 i
1j
b0001 k
b01 l
b0010 x
1{
#57
0{
#58
b1100 b
b1100 e
b0010 k
b0011 x
1{
#59
0{
#60
b1101 b
b1101 e
b0011 k
b0100 x
1{
#61
0{
#62
1C
1I
1V
b1110 b
b01 d
b1110 e
b10 l
b0101 x
1{
#63
0{
#64
0I
0K
0L
0N
b10100101 O
b10100101 R
0S
0T
0V
b1111 b
b1111 e
b010 f
b00 g
b00 l
b0110 x
1{
#65
0{
#66
b00101001 H
1J
0P
b10000000000001 Q
b00101001 R
b10000000000001 W
b10000000000001 Z
0]
b10000000000001 ^
b0000 b
b0000 e
b0000 x
b001 z
1{
#67
0{
#68
b00000000000001 E
1F
b00101010 G
b10100101 H
b00000000000001 Q
b00101010 R
1T
b00000000000001 W
b00000000000001 Z
b00000000000001 ^
b0001 b
b10 d
b0001 e
b0001 x
1{
#69
0{
#70
b0010 b
b0010 e
b00000000000001 h
b00101010 i
0j
b0001 k
b01 l
b0010 x
1{
#71
0{
#72
b01011010 H
1K
b01011010 U
b0011 b
b0011 e
b01 g
b0010 k
b0011 x
1{
#73
0{
#74
b0100 b
b0100 e
b0011 k
b0100 x
1{
#75
0{
#76
1I
1V
b0101 b
b0101 e
b10 l
b0101 x
1{
#77
0{
#78
0C
1D
0F
b01011010 G
0I
b01011010 R
1S
0T
0V
b0110 b
b011 c
b00 d
b0110 e
b00 l
b0110 x
1{
#79
0{
#80
0J
1P
b00000000001000 Q
b10100101 R
0S
b00000000001000 W
b00000000001000 Z
1]
b00000000001000 ^
b0111 b
b0111 e
b0000 x
b010 z
1{
#81
0{
#82
b00011010 H
b01000000000001 M
1N
b10100110 O
b01000000000001 Q
b10100110 R
1T
b01000000000001 W
b01000000000001 Z
b01000000000001 ^
b1000 b
b1000 e
b10 g
b0001 x
1{
#83
0{
#84
b1001 b
b1001 e
b01000000000001 m
b10100110 n
b0001 p
b01 q
b0010 x
1{
#85
0{
#86
b10110111 H
b10110111 X
b1010 b
b1010 e
b0010 p
b0011 x
1{
#87
0{
#88
b1011 b
b1011 e
b0011 p
b0100 x
1{
#89
0{
#90
1I
1Y
b1100 b
b1100 e
b10 q
b0101 x
1{
#91
0{
#92
0I
0K
1L
0N
b10110111 O
b10110111 R
1S
0T
0Y
b1101 b
b1101 e
b011 f
b00 g
b00 q
b0110 x
1{
#93
0{
#94
1C
1K
0P
b1110 b
b01 d
b1110 e
b01 g
b0000 x
b000 z
1{
#95
0{
#96
b01011010 H
1J
b00000000000001 Q
b01011010 R
b00000000000001 W
b00000000000001 Z
0]
b00000000000001 ^
b1111 b
b1111 e
b0001 x
b001 z
1{
#97
0{
#98
b01000000001001 E
1F
b01011011 G
b10110111 H
b01000000001001 Q
b01011011 R
1T
b01000000001001 W
b01000000001001 Z
b01000000001001 ^
b0000 b
b10 d
b0000 e
b0010 x
1{
#99
0{
#100
b0001 b
b0001 e
b01000000001001 m
b01011011 n
1o
b0001 p
b01 q
b0011 x
1{
#101
0{
#102
b0010 b
b0010 e
b0010 p
b0100 x
1{
#103
0{
#104
b0011 b
b0011 e
b0011 p
b0101 x
1{
#105
0{
#106
1I
1Y
b0100 b
b0100 e
b10 q
b0110 x
1{
#107
0{
#108
0C
0D
0F
b10110111 G
0I
b10110111 R
0S
0T
0Y
b0101 b
b100 c
b00 d
b0101 e
b00 q
b0111 x
1{
#109
0{
#110
0J
1P
b01000000000001 Q
1S
b01000000000001 W
b01000000000001 Z
1]
b01000000000001 ^
b0110 b
b0110 e
b0000 x
b010 z
1{
#111
0{
#112
b01011010 H
b00000000001001 M
1N
b10111000 O
b00000000001001 Q
b10111000 R
1T
b00000000001001 W
b00000000001001 Z
b00000000001001 ^
b0111 b
b0111 e
b10 g
b0001 x
1{
#113
0{
#114
b1000 b
b1000 e
b00000000001001 h
b10111000 i
1j
b0001 k
b01 l
b0010 x
1{
#115
0{
#116
b1001 b
b1001 e
b0010 k
b0011 x
1{
#117
0{
#118
b1010 b
b1010 e
b0011 k
b0100 x
1{
#119
0{
#120
1I
1V
b1011 b
b1011 e
b10 l
b0101 x
1{
#121
0{
#122
0I
0K
0L
0N
b01011010 O
b01011010 R
0S
0T
0V
b1100 b
b1100 e
b100 f
b00 g
b00 l
b0110 x
1{
#123
0{
#124
0P
b1101 b
b1101 e
b0000 x
b000 z
1{
#125
0{
#126
1C
1K
b1110 b
b01 d
b1110 e
b01 g
1{
#127
0{
#128
b10110111 H
1J
b01000000001001 Q
b10110111 R
b01000000001001 W
b01000000001001 Z
0]
b01000000001001 ^
b1111 b
b1111 e
b0001 x
b001 z
1{
#129
0{
#130
b00000000000010 E
1F
b10111000 G
b01011010 H
b00000000000010 Q
b10111000 R
1T
b00000000000010 W
b00000000000010 Z
b00000000000010 ^
b0000 b
b10 d
b0000 e
b0010 x
1{
#131
0{
#132
b0001 b
b0001 e
b00000000000010 h
0j
b0001 k
b01 l
b0011 x
1{
#133
0{
#134
b11111111 H
b11111111 U
b0010 b
b0010 e
b0010 k
b0100 x
1{
#135
0{
#136
b0011 b
b0011 e
b0011 k
b0101 x
1{
#137
0{
#138
1I
1V
b0100 b
b0100 e
b10 l
b0110 x
1{
#139
0{
#140
0C
1D
0F
b11111111 G
0I
b11111111 R
1S
0T
0V
b0101 b
b101 c
b00 d
b0101 e
b00 l
b0111 x
1{
#141
0{
#142
0J
1P
b00000000001001 Q
b01011010 R
0S
b00000000001001 W
b00000000001001 Z
1]
b00000000001001 ^
b0110 b
b0110 e
b0000 x
b010 z
1{
#143
0{
#144
b10110111 H
b01000000000010 M
1N
b01011011 O
b01000000000010 Q
b01011011 R
1T
b01000000000010 W
b01000000000010 Z
b01000000000010 ^
b0111 b
b0111 e
b10 g
b0001 x
1{
#145
0{
#146
b1000 b
b1000 e
b01000000000010 m
0o
b0001 p
b01 q
b0010 x
1{
#147
0{
#148
b00111110 H
b00111110 X
b1001 b
b1001 e
b0010 p
b0011 x
1{
